{
  "status": "connected",
  "authResponse": {
    "accessToken": "EAAEfnKmsirQBALH9u0oGYzmbcx2F92Lnua35cWskwuh4Jw2QeKtifoZAEuEggCmajPKAaZAfMSW9ZCnC3TUaZCLPItBt786cjfgHJhUpuB54dmGnovAtzWK44mWLrbZCT4GjbGnwbl4Pzx9opzUB9RLa4Gma8kDK386CypmjILkKCDMtnoO9PZBZBvwQuLdeDj2Tp1nxpPfG9EZCJWu6GDZCB",
    "expiresIn": "5183872",
    "session_key": true,
    "sig": "...",
    "userID": "10210498726404911"
  }
}
